{
  "consumes": [
    "application/json",
    "multipart/form-data"
  ],
  "produces": [
    "application/json"
  ],
  "swagger": "2.0",
  "info": {
    "description": "Documentation of your project API.\n\nSchemes:\nhttp\nhttps",
    "title": "infoblog.",
    "version": "1.0.0"
  },
  "basePath": "/",
  "paths": {
    "/api/1/auth/login": {
      "post": {
        "tags": [
          "auth"
        ],
        "summary": "Авторизация пользователя.",
        "operationId": "loginRequest",
        "parameters": [
          {
            "name": "Body",
            "in": "body",
            "schema": {
              "$ref": "#/definitions/LoginRequest"
            }
          }
        ],
        "responses": {
          "200": {
            "$ref": "#/responses/loginResponse"
          }
        }
      }
    },
    "/api/1/auth/refresh": {
      "post": {
        "security": [
          {
            "Bearer": [
              "[]"
            ]
          }
        ],
        "tags": [
          "auth"
        ],
        "summary": "Обновление рефреш токена.",
        "operationId": "refreshRequest",
        "responses": {
          "200": {
            "$ref": "#/responses/refreshResponse"
          }
        }
      }
    },
    "/api/1/auth/register": {
      "post": {
        "tags": [
          "auth"
        ],
        "summary": "Регистрация пользователя.",
        "operationId": "registerRequest",
        "parameters": [
          {
            "name": "Body",
            "in": "body",
            "schema": {
              "$ref": "#/definitions/RegisterRequest"
            }
          }
        ],
        "responses": {
          "200": {
            "$ref": "#/responses/registerResponse"
          }
        }
      }
    },
    "/api/1/auth/verify": {
      "post": {
        "tags": [
          "auth"
        ],
        "summary": "Верификация почты/телефона пользователя.",
        "operationId": "verifyRequest",
        "parameters": [
          {
            "name": "Body",
            "in": "body",
            "schema": {
              "$ref": "#/definitions/VerifyRequest"
            }
          }
        ],
        "responses": {
          "200": {
            "$ref": "#/responses/verifyResponse"
          }
        }
      }
    },
    "/api/1/user/profile": {
      "get": {
        "security": [
          {
            "Bearer": [
              "[]"
            ]
          }
        ],
        "tags": [
          "user"
        ],
        "summary": "Получение информации о текущем пользователе.",
        "operationId": "profileRequest",
        "responses": {
          "200": {
            "$ref": "#/responses/profileResponse"
          }
        }
      }
    }
  },
  "definitions": {
    "AuthResponse": {
      "type": "object",
      "properties": {
        "data": {
          "$ref": "#/definitions/LoginData"
        },
        "error_code": {
          "type": "integer",
          "format": "int64",
          "x-go-name": "ErrorCode"
        },
        "success": {
          "type": "boolean",
          "x-go-name": "Success"
        }
      },
      "x-go-package": "gitlab.com/Vallyenfail/jrpc-auth/internal/modules/auth/controller"
    },
    "Data": {
      "type": "object",
      "properties": {
        "message": {
          "type": "string",
          "x-go-name": "Message"
        },
        "user": {
          "$ref": "#/definitions/User"
        }
      },
      "x-go-package": "gitlab.com/Vallyenfail/jrpc-auth/internal/modules/user/controller"
    },
    "LoginData": {
      "type": "object",
      "properties": {
        "access_token": {
          "type": "string",
          "x-go-name": "AccessToken"
        },
        "message": {
          "type": "string",
          "x-go-name": "Message"
        },
        "refresh_token": {
          "type": "string",
          "x-go-name": "RefreshToken"
        }
      },
      "x-go-package": "gitlab.com/Vallyenfail/jrpc-auth/internal/modules/auth/controller"
    },
    "LoginRequest": {
      "type": "object",
      "properties": {
        "email": {
          "type": "string",
          "x-go-name": "Email"
        },
        "password": {
          "type": "string",
          "x-go-name": "Password"
        }
      },
      "x-go-package": "gitlab.com/Vallyenfail/jrpc-auth/internal/modules/auth/controller"
    },
    "ProfileResponse": {
      "type": "object",
      "properties": {
        "data": {
          "$ref": "#/definitions/Data"
        },
        "error_code": {
          "type": "integer",
          "format": "int64",
          "x-go-name": "ErrorCode"
        },
        "success": {
          "type": "boolean",
          "x-go-name": "Success"
        }
      },
      "x-go-package": "gitlab.com/Vallyenfail/jrpc-auth/internal/modules/user/controller"
    },
    "RegisterRequest": {
      "description": "go:generate easytags $GOFILE",
      "type": "object",
      "properties": {
        "email": {
          "type": "string",
          "x-go-name": "Email"
        },
        "password": {
          "type": "string",
          "x-go-name": "Password"
        },
        "retype_password": {
          "type": "string",
          "x-go-name": "RetypePassword"
        }
      },
      "x-go-package": "gitlab.com/Vallyenfail/jrpc-auth/internal/modules/auth/controller"
    },
    "RegisterResponse": {
      "type": "object",
      "properties": {
        "data": {
          "$ref": "#/definitions/Data"
        },
        "error_code": {
          "type": "integer",
          "format": "int64",
          "x-go-name": "ErrorCode"
        },
        "success": {
          "type": "boolean",
          "x-go-name": "Success"
        }
      },
      "x-go-package": "gitlab.com/Vallyenfail/jrpc-auth/internal/modules/auth/controller"
    },
    "User": {
      "type": "object",
      "properties": {
        "email": {
          "type": "string",
          "x-go-name": "Email"
        },
        "email_verified": {
          "type": "boolean",
          "x-go-name": "EmailVerified"
        },
        "id": {
          "type": "integer",
          "format": "int64",
          "x-go-name": "ID"
        },
        "name": {
          "type": "string",
          "x-go-name": "Name"
        },
        "phone": {
          "type": "string",
          "x-go-name": "Phone"
        },
        "phone_verified": {
          "type": "boolean",
          "x-go-name": "PhoneVerified"
        },
        "role": {
          "type": "integer",
          "format": "int64",
          "x-go-name": "Role"
        },
        "verified": {
          "type": "boolean",
          "x-go-name": "Verified"
        }
      },
      "x-go-package": "gitlab.com/Vallyenfail/jrpc-auth/internal/models"
    },
    "VerifyRequest": {
      "type": "object",
      "properties": {
        "email": {
          "type": "string",
          "x-go-name": "Email"
        },
        "hash": {
          "type": "string",
          "x-go-name": "Hash"
        }
      },
      "x-go-package": "gitlab.com/Vallyenfail/jrpc-auth/internal/modules/auth/controller"
    }
  },
  "responses": {
    "loginResponse": {
      "description": "",
      "schema": {
        "$ref": "#/definitions/AuthResponse"
      }
    },
    "profileResponse": {
      "description": "",
      "schema": {
        "$ref": "#/definitions/ProfileResponse"
      }
    },
    "refreshResponse": {
      "description": "",
      "schema": {
        "$ref": "#/definitions/AuthResponse"
      }
    },
    "registerResponse": {
      "description": "",
      "schema": {
        "$ref": "#/definitions/RegisterResponse"
      }
    },
    "verifyResponse": {
      "description": "",
      "schema": {
        "$ref": "#/definitions/AuthResponse"
      }
    }
  },
  "securityDefinitions": {
    "Bearer": {
      "type": "apiKey",
      "name": "Authorization",
      "in": "header"
    }
  }
}